Salt, Fat, Acid, Heat
…
# IV. An Alternative to Cookbook Statistics

<img src="img/infer_gnome.png" width="200" style="display: block; margin: auto;" />

---

# General Social Survey

```r
gss
```

```
## # A tibble: 149 x 6
##     year age   happy   cappun space       party
##    <dbl> <fct> <fct>   <fct>  <fct>       <fct>
##  1  2016 61    HAPPY   FAVOR  TOO LITTLE  Ind  
##  2  2016 35    UNHAPPY OPPOSE ABOUT RIGHT Ind  
##  3  2016 21    UNHAPPY OPPOSE ABOUT RIGHT Dem  
##  4  2016 22    HAPPY   OPPOSE TOO LITTLE  Ind  
##  5  2016 32    UNHAPPY OPPOSE TOO MUCH    Ind  
##  6  2016 41    HAPPY   OPPOSE TOO LITTLE  Ind  
##  7  2016 25    UNHAPPY OPPOSE ABOUT RIGHT Ind  
##  8  2016 53    HAPPY   OPPOSE ABOUT RIGHT Dem  
##  9  2016 41    HAPPY   OPPOSE TOO LITTLE  Dem  
## 10  2016 67    HAPPY   FAVOR  TOO LITTLE  Ind  
## # … with 139 more rows
```

---

# Test of independence

```r
gss %>%
* specify(space ~ party)
```
--

```
## Response: space (factor)
## Explanatory: party (factor)
## # A tibble: 149 x 2
##    space       party
##    <fct>       <fct>
##  1 TOO LITTLE  Ind  
##  2 ABOUT RIGHT Ind  
##  3 ABOUT RIGHT Dem  
##  4 TOO LITTLE  Ind  
##  5 TOO MUCH    Ind  
##  6 TOO LITTLE  Ind  
##  7 ABOUT RIGHT Ind  
##  8 ABOUT RIGHT Dem  
##  9 TOO LITTLE  Dem  
## 10 TOO LITTLE  Ind  
## # … with 139 more rows
```
…
# Test of independence

```r
gss %>%
  specify(space ~ party) %>%
* hypothesize(null = "independence")
```
--

```
## Response: space (factor)
## Explanatory: party (factor)
## Null Hypothesis: independence
## # A tibble: 149 x 2
##    space       party
##    <fct>       <fct>
##  1 TOO LITTLE  Ind  
##  2 ABOUT RIGHT Ind  
##  3 ABOUT RIGHT Dem  
##  4 TOO LITTLE  Ind  
##  5 TOO MUCH    Ind  
##  6 TOO LITTLE  Ind  
##  7 ABOUT RIGHT Ind  
##  8 ABOUT RIGHT Dem  
##  9 TOO LITTLE  Dem  
## 10 TOO LITTLE  Ind  
## # … with 139 more rows
```
…
# Test of independence

```r
gss %>%
  specify(space ~ party) %>%
  hypothesize(null = "independence") %>%
* generate(reps = 500, type = "permute")
```
--

```
## Response: space (factor)
## Explanatory: party (factor)
## Null Hypothesis: independence
## # A tibble: 74,500 x 3
## # Groups:   replicate [500]
##    space       party replicate
##    <fct>       <fct>     <int>
##  1 TOO LITTLE  Ind           1
##  2 TOO MUCH    Ind           1
##  3 TOO LITTLE  Dem           1
##  4 TOO MUCH    Ind           1
##  5 TOO MUCH    Ind           1
##  6 ABOUT RIGHT Ind           1
##  7 ABOUT RIGHT Ind           1
##  8 ABOUT RIGHT Dem           1
##  9 ABOUT RIGHT Dem           1
## 10 TOO LITTLE  Ind           1
## # … with 74,490 more rows
```
---

# Test of independence

```r
gss %>%
  specify(space ~ party) %>%
  hypothesize(null = "independence") %>%
  generate(reps = 500, type = "permute") %>%
* calculate(stat = "Chisq")
```
--

```
## # A tibble: 500 x 2
##    replicate  stat
##        <int> <dbl>
##  1         1  3.12
##  2         2  3.55
##  3         3  4.74
##  4         4  2.90
##  5         5  2.90
##  6         6  1.88
##  7         7  1.80
##  8         8  3.27
##  9         9  3.15
## 10        10 10.0 
## # … with 490 more rows
```
…
# Comparing Proportions

--

```r
gss %>%
* specify(happy ~ cappun, success = "HAPPY") %>%
  hypothesize(null = "independence") %>%
  generate(reps = 500, type = "permute") %>%
* calculate(stat = "diff in props", order = c("FAVOR", "OPPOSE"))
```
--

```
## # A tibble: 500 x 2
##    replicate     stat
##        <int>    <dbl>
##  1         1  0.00458
##  2         2  0.141  
##  3         3  0.0319 
##  4         4 -0.0773 
##  5         5 -0.0227 
##  6         6  0.00458
##  7         7 -0.105  
##  8         8  0.0592 
##  9         9  0.0319 
## 10        10  0.0592 
## # … with 490 more rows
```
…
